{
  "appenders": {
    "access": { "type": "console", "pattern": "%d{dd/MM hh:mm} %-5p %m - "},
    "app": { "type": "console", "maxLogSize": 10240, "numBackups": 3},
    "errorFile": { "type": "console" },
    "errors": { "type": "logLevelFilter", "level": "error", "appender": "errorFile"}
  },
  "categories": {
    "default": { "appenders": ["app", "errors"], "level": "info" },
    "http": { "appenders": ["access"], "level": "info" }
  }
}
